{
    "devices":[
        {
            "name" : "OnePlus 3",
            "id" : "03d2fad7913f3ee053f5e5cdd3617268"
        },     
        {
            "name" : "OnePlus 6",
            "id" : "6902dfb0d5d7b41fa027438e9828487f"
        },
        {
            "name" : "OnePlus 6",
            "id" : "072b2ddcba3705a3c740fca564dad42c"
        },
        {
            "name" : "Motorola",
            "id" : "cb7ca5b49a341d13814143ae0127e310"
        },
        {
            "name" : "Nexus 6",
            "id" : "84d8791cea67e332c7175387017df544"
        },
        {
            "name" : "Lenovo Tablet",
            "id" : "dae005540b55e2ce0f48ea8bb7d89892"
        }
    ],

    "experiments" : [
        {   
            "n" : 0, 
            "experiment" : "Devices on the ground",
            "distances" : [0,1,2,3,4,5,7.5,10],
            "dates" : ["2019-03-14 12:19:00","2019-03-14 12:52:00","2019-03-19 15:15:00","2019-03-19 15:42:00"],
            "interval" : 90,
            "devices" :
                [
                    {
                        "name" : "OnePlus 3",
                        "id" : "03d2fad7913f3ee053f5e5cdd3617268",
                        "start_distance" : 0
                    },
                    {
                        "name" : "Lenovo Tablet",
                        "id" : "dae005540b55e2ce0f48ea8bb7d89892",
                        "reverse" : true,
                        "start_distance" : 10
                    }
                ],
            "non_static_devices" : 
                [
                    {  
                        "name" : "OnePlus 6",
                        "id" : "6902dfb0d5d7b41fa027438e9828487f"
                    }
                    
                ]
        },
        {
            "n" : 1,
            "experiment" : "Devices on the ground",
            "distances" : [0,1,2,3,4,5,7.5,10],
            "dates" : ["2019-03-19 15:15:00","2019-03-19 15:42:00"],
            "interval" : 90,
            "devices" :
                [
                    {
                        "name" : "OnePlus 3",
                        "id" : "03d2fad7913f3ee053f5e5cdd3617268",
                        "start_distance" : 0
                    
                    },
                    {
                        "name" : "Lenovo Tablet",
                        "id" : "dae005540b55e2ce0f48ea8bb7d89892",
                        "start_distance" : 10,
                        "reverse" : true
                    }
                ],
            "non_static_devices" : 
                [
                    {  
                        "name" : "OnePlus 6",
                        "id" : "6902dfb0d5d7b41fa027438e9828487f"
                    }
                    
                ]
        },
        {
            "n" : 2,
            "experiment" : "Devices on chairs",
            "distances" : [0,1,2,3,4,5,7.5,10],
            "dates" : ["2019-03-27 15:04:00","2019-03-27 15:17:00",
                "2019-03-27 15:37:00","2019-03-27 15:49:00"],
            "interval" : 90,
            "devices" :
                [
                    {
                        "name" : "OnePlus 3",
                        "id" : "03d2fad7913f3ee053f5e5cdd3617268",
                        "start_distance" : 0
                    
                    },
                    {
                        "name" : "Lenovo Tablet",
                        "id" : "dae005540b55e2ce0f48ea8bb7d89892",
                        "start_distance" : 10,
                        "reverse" : true
                    }
                ],
            "non_static_devices" : 
                [
                    {  
                        "name" : "OnePlus 6",
                        "id" : "6902dfb0d5d7b41fa027438e9828487f"
                    }
                    
                ]
        },
        {
            "n" : 3,
            "experiment" : "Devices on chair",
            "distances" : [0,1,2,3,4,5,7.5,10],
            "dates" : ["2019-03-27 16:30:00","2019-03-27 16:42:00"],
            "interval" : 90,
            "devices" :
                [
                    {  
                        "name" : "OnePlus 6",
                        "id" : "6902dfb0d5d7b41fa027438e9828487f",
                        "start_distance" : 0
                    
                    },
                    {
                        "name" : "OnePlus 3",
                        "id" : "03d2fad7913f3ee053f5e5cdd3617268",
                        "start_distance" : 10,
                        "reverse" : true
                    }
                ],
            "non_static_devices" : 
                [
                    {  
                        
                        "name" : "Lenovo Tablet",
                        "id" : "dae005540b55e2ce0f48ea8bb7d89892"
                    }
                    
                ]
        },
        {
            "n" : 4,
            "experiment" : "Devices on chair",
            "distances" : [0,0.20,0.40,0.60,0.80,1,1.20],
            "dates" : ["2019-04-01 11:51:00","2019-04-01 12:03:00","2019-04-01 12:17:00"],
            "interval" : 90,
            "devices" :
                [
                    {  
                        "name" : "OnePlus 6",
                        "id" : "6902dfb0d5d7b41fa027438e9828487f"
                    },
                    {
                        "name" : "OnePlus 3",
                        "id" : "03d2fad7913f3ee053f5e5cdd3617268"
                    }
                ]
        },

        {
            "n" : 5,
            "experiment" : "Devices on chair",
            "distances" : [0,0.20,0.40,0.60,0.80,1,1.20],
            "dates" : ["2019-04-01 16:06:00","2019-04-01 16:18:00","2019-04-01 16:30:00"],
            "interval" : 90,
            "devices" :
                [
                    {  
                        "name" : "Lenovo",
                        "id" : "dae005540b55e2ce0f48ea8bb7d89892"
                    },
                    {
                        "name" : "OnePlus 3",
                        "id" : "03d2fad7913f3ee053f5e5cdd3617268"
                    }
                ]
        },
        {
            "n" : 6,
            "experiment" : "Devices on ground",
            "distances" : [0,0.20,0.40,0.60,0.80,1,1.20],
            "dates" : ["2019-04-09 11:06:00","2019-04-09 11:18:00","2019-04-09 11:30:00"],
            "interval" : 90,
            "devices" :
                [
                    {  
                        "name" : "OnePlus 6",
                        "id" : "6902dfb0d5d7b41fa027438e9828487f"
                    },
                    {
                        "name" : "OnePlus 3",
                        "id" : "03d2fad7913f3ee053f5e5cdd3617268"
                    }
                ]
        },
        {
            "n" : 7,
            "experiment" : "on chairs < 0-5m -- Rotating oneplus 3",
            "distances" : [0,1,2,3,4,5],
            "dates" : ["2019-04-09 14:31:00","2019-04-09 15:16:00","2019-04-09 14:54:00"
                ,"2019-04-09 14:20:00","2019-04-09 15:05:00","2019-04-09 14:43:00"],
            "interval" : 90,
            "pos" : 6,
            "position" : true,
            "devices" :
                [
                    {  
                        "name" : "OnePlus 6",
                        "id" : "6902dfb0d5d7b41fa027438e9828487f"
                    },
                    {
                        "name" : "OnePlus 3",
                        "id" : "03d2fad7913f3ee053f5e5cdd3617268"
                    }
                ]
        },

        {
            "n" : 8,
            "experiment" : "on chairs < 0-5m -- Rotating oneplus 3, wall",
            "distances" : [0,0.5,1,1.5,2,2.5,3,3.5,4,4.5,5],
            "dates" : ["2019-04-11 14:44:00","2019-04-11 15:02:00","2019-04-11 15:20:00",
                "2019-04-11 15:38:00"],
            "interval" : 90,
            "pos" : 4,
            "position" : true,
            "devices" :
                [
                    {  
                        "name" : "OnePlus 6",
                        "id" : "6902dfb0d5d7b41fa027438e9828487f"
                    },
                    {
                        "name" : "OnePlus 3",
                        "id" : "03d2fad7913f3ee053f5e5cdd3617268"
                    }
                ]
        }
        ,
        {
            "n" : 9,
            "experiment" : "on chairs < 0-5m -- Rotating oneplus 3 no wall",
            "distances" : [0,0.5,1,1.5,2,2.5,3,3.5,4,4.5,5],
            "dates" : ["2019-04-11 16:21:00","2019-04-11 17:05:00","2019-04-11 17:27:00",
                "2019-04-11 17:47:00"],
            "interval" : 90,
            "pos" : 4,
            "position" : true,
            "devices" :
                [
                    {
                        "name" : "OnePlus 3",
                        "id" : "03d2fad7913f3ee053f5e5cdd3617268"
                    }
                ],
            "non_static_devices" : 
                [
                    {  
                        "name" : "OnePlus 6",
                        "id" : "6902dfb0d5d7b41fa027438e9828487f"
                    },
                    {
                        "name" : "Motorola",
                        "id" : "cb7ca5b49a341d13814143ae0127e310"
                    }
                ]
        },
        {
            "n" : 10,
            "experiment" : "on chairs < 0-5m -- Rotating oneplus 3 no wall",
            "distances" : [0,0.5,1,1.5,2,2.5,3,3.5,4,4.5,5],
            "dates" : ["2019-04-16 11:08:00","2019-04-16 11:31:00","2019-04-16 11:49:00",
                "2019-04-16 12:07:00"],
            "interval" : 90,
            "pos" : 4,
            "position" : true,
            "devices" :
                [
                    {
                        "name" : "Nexus 6",
                        "id" : "84d8791cea67e332c7175387017df544"
                    },
                    {
                        "name" : "OnePlus 3",
                        "id" : "03d2fad7913f3ee053f5e5cdd3617268"
                    }
                ]
        },
        {   
            "n" : 11, 
            "experiment" : "on Ground without chairs",
            "distances" : [0,1,2,3,4,5,7.5,10],
            "dates" : ["2019-03-13 11:51:00","2019-03-13 12:00:00","2019-03-13 12:15:00"],
            "interval" : 60,
            "devices" :
                [
                    {
                        "name" : "Motorola",
                        "id" : "cb7ca5b49a341d13814143ae0127e310",
                        "start_distance" : 0
                    },
                    {
                        "name" : "Lenovo Tablet",
                        "id" : "dae005540b55e2ce0f48ea8bb7d89892",
                        "reverse" : true,
                        "start_distance" : 10
                    }
                ],
            "non_static_devices" : 
                [
                    {  
                        "name" : "Oneplus 6",
                        "id" : "6902dfb0d5d7b41fa027438e9828487f"
                    }
                    
                ]
        },
        {   
            "n" : 12, 
            "experiment" : "on Ground without chairs",
            "distances" : [0,1,2,3,4,5,7.5,10],
            "dates" : ["2019-03-13 11:51:00","2019-03-13 12:00:00","2019-03-13 12:15:00"],
            "interval" : 60,
            "devices" :
                [
                    {
                        "name" : "Oneplus 6",
                        "id" : "6902dfb0d5d7b41fa027438e9828487f",
                        "start_distance" : 0
                    },
                    {
                        "name" : "Lenovo Tablet",
                        "id" : "dae005540b55e2ce0f48ea8bb7d89892",
                        "reverse" : true,
                        "start_distance" : 10
                    }
                ],
            "non_static_devices" : 
                [
                    {  
                        "name" : "Motorola",
                        "id" : "cb7ca5b49a341d13814143ae0127e310"
                    }
                    
                ]
        }
    ]
}